…
> system.time(mtx <- expand.grid.jc(mcS$from, mcS$to))
#user  system elapsed 
#0.44    0.17    0.61 
```

虽然评估的时间更快，但正常`expand.grid()`情况下读取对象的时间会`mtx`比`expand.ffgrid()`.

添加信息（数据大小）：

```
> as_data_frame(mtx)
# A tibble: 100,000,000 x 2
    from    to
   <int> <int>
 1   101   126
 2   126   126
 3   192   126
 4    19   126
 5    66   126
 6    82   126
 7   143   126
 8     1   126
 9    88   126
10   168   126
# ... with 99,999,990 more rows 
```
…
