…
我很惊讶没有人提到`tools::package_dependencies()`，这是最简单的解决方案，并且有一个`recursive`论点（公认的解决方案不提供）。

查看 CRAN 上前 200 个包的递归依赖关系的简单示例：

```
library(tidyverse)
avail_pks <- available.packages()
deps <- tools::package_dependencies(packages = avail_pks[1:200, "Package"],
                                    recursive = TRUE)

tibble(Package=names(deps),
       data=map(deps, as_tibble)) %>% 
  unnest(data)
#> # A tibble: 7,125 x 2
#>    Package value         
#>    <chr>   <chr>         
#>  1 A3      xtable        
#>  2 A3      pbapply       
#>  3 A3      parallel      
#>  4 A3      stats         
#>  5 A3      utils         
#>  6 aaSEA   DT            
#>  7 aaSEA   networkD3     
#>  8 aaSEA   shiny         
#>  9 aaSEA   shinydashboard
#> 10 aaSEA   magrittr      
#> # … with 7,115 more rows 
```
…
